%YAML 1.1
%TAG !u! tag:unity3d.com,2011:
--- !u!1 &456506549663062595
GameObject:
  m_ObjectHideFlags: 0
  m_CorrespondingSourceObject: {fileID: 0}
  m_PrefabInstance: {fileID: 0}
  m_PrefabAsset: {fileID: 0}
  serializedVersion: 6
  m_Component:
  - component: {fileID: 3462863017062475856}
  - component: {fileID: 6246935330063177753}
  m_Layer: 0
  m_Name: LittleFish
  m_TagString: Fish
  m_Icon: {fileID: 0}
  m_NavMeshLayer: 0
  m_StaticEditorFlags: 0
  m_IsActive: 1
--- !u!4 &3462863017062475856
Transform:
  m_ObjectHideFlags: 0
  m_CorrespondingSourceObject: {fileID: 0}
  m_PrefabInstance: {fileID: 0}
  m_PrefabAsset: {fileID: 0}
  m_GameObject: {fileID: 456506549663062595}
  m_LocalRotation: {x: 0, y: 0, z: -1, w: 0}
  m_LocalPosition: {x: 0, y: 0, z: 0}
  m_LocalScale: {x: 0.2, y: 0.2, z: 0.2}
  m_Children:
  - {fileID: 3652451144998296504}
  m_Father: {fileID: 0}
  m_RootOrder: 0
  m_LocalEulerAnglesHint: {x: 0, y: 0, z: -180}
--- !u!114 &6246935330063177753
MonoBehaviour:
  m_ObjectHideFlags: 0
  m_CorrespondingSourceObject: {fileID: 0}
  m_PrefabInstance: {fileID: 0}
  m_PrefabAsset: {fileID: 0}
  m_GameObject: {fileID: 456506549663062595}
  m_Enabled: 1
  m_EditorHideFlags: 0
  m_Script: {fileID: 11500000, guid: 800c73a929a2dbc4dbbc1fdab3f9b05d, type: 3}
  m_Name: 
  m_EditorClassIdentifier: 
  velDown: 2
  vedUp: 7
--- !u!1001 &8631896600732381346
PrefabInstance:
  m_ObjectHideFlags: 0
  serializedVersion: 2
  m_Modification:
    m_TransformParent: {fileID: 3462863017062475856}
    m_Modifications:
    - target: {fileID: -927199367670048503, guid: 4f88ea5425dd68843bdb33162bfd30c4,
        type: 3}
      propertyPath: m_Name
      value: fishOBJ
      objectReference: {fileID: 0}
    - target: {fileID: -4216859302048453862, guid: 4f88ea5425dd68843bdb33162bfd30c4,
        type: 3}
      propertyPath: m_LocalPosition.x
      value: -0
      objectReference: {fileID: 0}
    - target: {fileID: -4216859302048453862, guid: 4f88ea5425dd68843bdb33162bfd30c4,
        type: 3}
      propertyPath: m_LocalPosition.y
      value: 1
      objectReference: {fileID: 0}
    - target: {fileID: -4216859302048453862, guid: 4f88ea5425dd68843bdb33162bfd30c4,
        type: 3}
      propertyPath: m_LocalPosition.z
      value: -2
      objectReference: {fileID: 0}
    - target: {fileID: -4216859302048453862, guid: 4f88ea5425dd68843bdb33162bfd30c4,
        type: 3}
      propertyPath: m_LocalRotation.x
      value: 0
      objectReference: {fileID: 0}
    - target: {fileID: -4216859302048453862, guid: 4f88ea5425dd68843bdb33162bfd30c4,
        type: 3}
      propertyPath: m_LocalRotation.y
      value: 0
      objectReference: {fileID: 0}
    - target: {fileID: -4216859302048453862, guid: 4f88ea5425dd68843bdb33162bfd30c4,
        type: 3}
      propertyPath: m_LocalRotation.z
      value: 0
      objectReference: {fileID: 0}
    - target: {fileID: -4216859302048453862, guid: 4f88ea5425dd68843bdb33162bfd30c4,
        type: 3}
      propertyPath: m_LocalRotation.w
      value: 1
      objectReference: {fileID: 0}
    - target: {fileID: -4216859302048453862, guid: 4f88ea5425dd68843bdb33162bfd30c4,
        type: 3}
      propertyPath: m_RootOrder
      value: 0
      objectReference: {fileID: 0}
    - target: {fileID: -4216859302048453862, guid: 4f88ea5425dd68843bdb33162bfd30c4,
        type: 3}
      propertyPath: m_LocalEulerAnglesHint.x
      value: 0
      objectReference: {fileID: 0}
    - target: {fileID: -4216859302048453862, guid: 4f88ea5425dd68843bdb33162bfd30c4,
        type: 3}
      propertyPath: m_LocalEulerAnglesHint.y
      value: 0
      objectReference: {fileID: 0}
    - target: {fileID: -4216859302048453862, guid: 4f88ea5425dd68843bdb33162bfd30c4,
        type: 3}
      propertyPath: m_LocalEulerAnglesHint.z
      value: 0
      objectReference: {fileID: 0}
    - target: {fileID: 8208016777704099116, guid: 4f88ea5425dd68843bdb33162bfd30c4,
        type: 3}
      propertyPath: m_Materials.Array.data[0]
      value: 
      objectReference: {fileID: 2100000, guid: 3b56200e389f27c46b16259728620e42, type: 2}
    - target: {fileID: 7945791696185175394, guid: 4f88ea5425dd68843bdb33162bfd30c4,
        type: 3}
      propertyPath: m_Mesh
      value: 
      objectReference: {fileID: -6937470016161580647, guid: 4bfa51ded8ebbed4fbd87093df19bd04,
        type: 3}
    m_RemovedComponents: []
  m_SourcePrefab: {fileID: 100100000, guid: 4f88ea5425dd68843bdb33162bfd30c4, type: 3}
--- !u!4 &3652451144998296504 stripped
Transform:
  m_CorrespondingSourceObject: {fileID: -4216859302048453862, guid: 4f88ea5425dd68843bdb33162bfd30c4,
    type: 3}
  m_PrefabInstance: {fileID: 8631896600732381346}
  m_PrefabAsset: {fileID: 0}
